Introdução à análise geoespacial com R
…
---

# 6.4 Importar dados

## Dados de pacotes: geobr

```r
# list all datasets available in the geobr package
geobr::list_geobr()
```

```
## # A tibble: 23 x 4
##    `function`           geography                     years                                                                        source
##    <chr>                <chr>                         <chr>                                                                        <chr> 
##  1 `read_country`       Country                       1872, 1900, 1911, 1920, 1933, 1940, 1950, 1960, 1970, 1980, 1991, 2000, 200… IBGE  
##  2 `read_region`        Region                        2000, 2001, 2010, 2013, 2014, 2015, 2016, 2017, 2018, 2019                   IBGE  
##  3 `read_state`         States                        1872, 1900, 1911, 1920, 1933, 1940, 1950, 1960, 1970, 1980, 1991, 2000, 200… IBGE  
##  4 `read_meso_region`   Meso region                   2000, 2001, 2010, 2013, 2014, 2015, 2016, 2017, 2018, 2019                   IBGE  
##  5 `read_micro_region`  Micro region                  2000, 2001, 2010, 2013, 2014, 2015, 2016, 2017, 2018, 2019                   IBGE  
##  6 `read_intermediate_… Intermediate region           2017, 2019                                                                   IBGE  
##  7 `read_immediate_reg… Immediate region              2017, 2019                                                                   IBGE  
##  8 `read_weighting_are… Census weighting area (área … 2010                                                                         IBGE  
##  9 `read_census_tract`  Census tract (setor censitár… 2000, 2010, 2017                                                             IBGE  
## 10 `read_municipal_sea… Municipality seats (sedes mu… 1872, 1900, 1911, 1920, 1933, 1940, 1950, 1960, 1970, 1980, 1991, 2010       IBGE  
## # … with 13 more rows
```
…
---

# 6.6 Converter dados sf

## Dados de uma planilha eletrônica

```r
# import table
si <- readr::read_csv(here::here("03_dados", "tabelas", "ATLANTIC_AMPHIBIANS_sites.csv"))
si
```

```
## # A tibble: 1,163 x 25
##    id    reference_number species_number record sampled_habitat active_methods passive_methods complementary_m… period month_start
##    <chr>            <dbl>          <dbl> <chr>  <chr>           <chr>          <chr>           <chr>            <chr>        <dbl>
##  1 amp1…             1001             19 ab     fo,ll           as             pt              <NA>             mo,da…           9
##  2 amp1…             1002             16 co     fo,la,ll        as             pt              <NA>             mo,da…          12
##  3 amp1…             1002             14 co     fo,la,ll        as             pt              <NA>             mo,da…          12
##  4 amp1…             1002             13 co     fo,la,ll        as             pt              <NA>             mo,da…          12
##  5 amp1…             1003             30 co     fo,ll,br        as             <NA>            <NA>             mo,da…           7
##  6 amp1…             1004             42 co     tp,pp,la,ll,is  <NA>           <NA>            <NA>             <NA>            NA
##  7 amp1…             1005             23 co     sp              as             <NA>            <NA>             <NA>             4
##  8 amp1…             1005             19 co     sp,la,sw        as,sb,tr       <NA>            <NA>             tw,ni            4
##  9 amp1…             1005             13 ab     fo              <NA>           pt              <NA>             mo,da…           4
## 10 amp1…             1006              1 ab     fo              <NA>           pt              <NA>             mo,da…           5
## # … with 1,153 more rows, and 15 more variables: year_start <dbl>, month_finish <dbl>, year_finish <dbl>, effort_months <dbl>,
## #   country <chr>, state <chr>, state_abbreviation <chr>, municipality <chr>, site <chr>, latitude <dbl>, longitude <dbl>,
## #   coordinate_precision <chr>, altitude <dbl>, temperature <dbl>, precipitation <dbl>
```
---

# 6.6 Converter dados sf

## Add as duas colunas de `lon` e `lat`

```r
# add column
si <- si %>% 
  dplyr::mutate(lon = longitude, lat = latitude, .before = 1)
si
```

```
## # A tibble: 1,163 x 27
##      lon   lat id    reference_number species_number record sampled_habitat active_methods passive_methods complementary_m… period
##    <dbl> <dbl> <chr>            <dbl>          <dbl> <chr>  <chr>           <chr>          <chr>           <chr>            <chr> 
##  1 -43.4 -8.68 amp1…             1001             19 ab     fo,ll           as             pt              <NA>             mo,da…
##  2 -38.9 -3.55 amp1…             1002             16 co     fo,la,ll        as             pt              <NA>             mo,da…
##  3 -38.9 -3.57 amp1…             1002             14 co     fo,la,ll        as             pt              <NA>             mo,da…
##  4 -38.9 -3.52 amp1…             1002             13 co     fo,la,ll        as             pt              <NA>             mo,da…
##  5 -38.9 -4.28 amp1…             1003             30 co     fo,ll,br        as             <NA>            <NA>             mo,da…
##  6 -36.4 -9.23 amp1…             1004             42 co     tp,pp,la,ll,is  <NA>           <NA>            <NA>             <NA>  
##  7 -40.9 -3.85 amp1…             1005             23 co     sp              as             <NA>            <NA>             <NA>  
##  8 -40.9 -3.83 amp1…             1005             19 co     sp,la,sw        as,sb,tr       <NA>            <NA>             tw,ni 
##  9 -40.9 -3.84 amp1…             1005             13 ab     fo              <NA>           pt              <NA>             mo,da…
## 10 -35.2 -6.14 amp1…             1006              1 ab     fo              <NA>           pt              <NA>             mo,da…
## # … with 1,153 more rows, and 16 more variables: month_start <dbl>, year_start <dbl>, month_finish <dbl>, year_finish <dbl>,
## #   effort_months <dbl>, country <chr>, state <chr>, state_abbreviation <chr>, municipality <chr>, site <chr>, latitude <dbl>,
## #   longitude <dbl>, coordinate_precision <chr>, altitude <dbl>, temperature <dbl>, precipitation <dbl>
```
…
```r
# convert to sf
si_ve <- si %>% 
  sf::st_as_sf(coords = c("lon", "lat"), crs = 4326)
si_ve
```

```
## Simple feature collection with 1163 features and 25 fields
## geometry type:  POINT
## dimension:      XY
## bbox:           xmin: -56.74194 ymin: -33.51083 xmax: -34.79667 ymax: -3.51525
## geographic CRS: WGS 84
## # A tibble: 1,163 x 26
##    id    reference_number species_number record sampled_habitat active_methods passive_methods complementary_m… period month_start
##  * <chr>            <dbl>          <dbl> <chr>  <chr>           <chr>          <chr>           <chr>            <chr>        <dbl>
##  1 amp1…             1001             19 ab     fo,ll           as             pt              <NA>             mo,da…           9
##  2 amp1…             1002             16 co     fo,la,ll        as             pt              <NA>             mo,da…          12
##  3 amp1…             1002             14 co     fo,la,ll        as             pt              <NA>             mo,da…          12
##  4 amp1…             1002             13 co     fo,la,ll        as             pt              <NA>             mo,da…          12
##  5 amp1…             1003             30 co     fo,ll,br        as             <NA>            <NA>             mo,da…           7
##  6 amp1…             1004             42 co     tp,pp,la,ll,is  <NA>           <NA>            <NA>             <NA>            NA
##  7 amp1…             1005             23 co     sp              as             <NA>            <NA>             <NA>             4
##  8 amp1…             1005             19 co     sp,la,sw        as,sb,tr       <NA>            <NA>             tw,ni            4
##  9 amp1…             1005             13 ab     fo              <NA>           pt              <NA>             mo,da…           4
## 10 amp1…             1006              1 ab     fo              <NA>           pt              <NA>             mo,da…           5
## # … with 1,153 more rows, and 16 more variables: year_start <dbl>, month_finish <dbl>, year_finish <dbl>, effort_months <dbl>,
## #   country <chr>, state <chr>, state_abbreviation <chr>, municipality <chr>, site <chr>, latitude <dbl>, longitude <dbl>,
## #   coordinate_precision <chr>, altitude <dbl>, temperature <dbl>, precipitation <dbl>, geometry <POINT [°]>
```
…
